(kicad_sch (version 20230121) (generator eeschema)

  (uuid ed9ca487-6175-4c97-b41b-0b1c12ff3146)

  (paper "A5")

  (title_block
    (title "TV-Port Flashrom Switch Stackup")
    (date "2023-09-03")
    (rev "1.1")
  )

  (lib_symbols
    (symbol "Connector_Generic:Conn_01x01" (pin_names (offset 1.016) hide) (in_bom yes) (on_board yes)
      (property "Reference" "J" (at 0 2.54 0)
        (effects (font (size 1.27 1.27)))
      )
      (property "Value" "Conn_01x01" (at 0 -2.54 0)
        (effects (font (size 1.27 1.27)))
      )
      (property "Footprint" "" (at 0 0 0)
        (effects (font (size 1.27 1.27)) hide)
      )
      (property "Datasheet" "~" (at 0 0 0)
        (effects (font (size 1.27 1.27)) hide)
      )
      (property "ki_keywords" "connector" (at 0 0 0)
        (effects (font (size 1.27 1.27)) hide)
      )
      (property "ki_description" "Generic connector, single row, 01x01, script generated (kicad-library-utils/schlib/autogen/connector/)" (at 0 0 0)
        (effects (font (size 1.27 1.27)) hide)
      )
      (property "ki_fp_filters" "Connector*:*_1x??_*" (at 0 0 0)
        (effects (font (size 1.27 1.27)) hide)
      )
      (symbol "Conn_01x01_1_1"
        (rectangle (start -1.27 0.127) (end 0 -0.127)
          (stroke (width 0.1524) (type default))
          (fill (type none))
        )
        (rectangle (start -1.27 1.27) (end 1.27 -1.27)
          (stroke (width 0.254) (type default))
          (fill (type background))
        )
        (pin passive line (at -5.08 0 0) (length 3.81)
          (name "Pin_1" (effects (font (size 1.27 1.27))))
          (number "1" (effects (font (size 1.27 1.27))))
        )
      )
    )
    (symbol "Switch:SW_Coded" (in_bom yes) (on_board yes)
      (property "Reference" "SW" (at -6.35 8.89 0)
        (effects (font (size 1.27 1.27)) (justify left))
      )
      (property "Value" "SW_Coded" (at -6.35 -7.62 0)
        (effects (font (size 1.27 1.27)) (justify left))
      )
      (property "Footprint" "" (at -0.635 0.635 0)
        (effects (font (size 1.27 1.27)) hide)
      )
      (property "Datasheet" "~" (at -0.635 0.635 0)
        (effects (font (size 1.27 1.27)) hide)
      )
      (property "ki_keywords" "rotary hex" (at 0 0 0)
        (effects (font (size 1.27 1.27)) hide)
      )
      (property "ki_description" "Rotary switch, 4-bit encoding" (at 0 0 0)
        (effects (font (size 1.27 1.27)) hide)
      )
      (symbol "SW_Coded_0_1"
        (circle (center -0.635 0.635) (radius 3.81)
          (stroke (width 0) (type default))
          (fill (type none))
        )
        (polyline
          (pts
            (xy -0.889 -1.905)
            (xy -0.889 2.667)
            (xy -1.397 2.159)
            (xy -1.905 2.159)
            (xy -0.635 3.429)
            (xy 0.635 2.159)
            (xy 0.127 2.159)
            (xy -0.381 2.667)
            (xy -0.381 -1.905)
            (xy -0.889 -1.905)
            (xy -0.889 -1.905)
          )
          (stroke (width 0) (type default))
          (fill (type none))
        )
        (rectangle (start 7.62 7.62) (end -6.35 -6.35)
          (stroke (width 0.254) (type default))
          (fill (type background))
        )
      )
      (symbol "SW_Coded_1_1"
        (pin passive line (at 12.7 6.35 180) (length 5.08)
          (name "CM" (effects (font (size 1.27 1.27))))
          (number "1" (effects (font (size 1.27 1.27))))
        )
        (pin passive line (at 12.7 2.54 180) (length 5.08)
          (name "D0" (effects (font (size 1.27 1.27))))
          (number "2" (effects (font (size 1.27 1.27))))
        )
        (pin passive line (at 12.7 0 180) (length 5.08)
          (name "D1" (effects (font (size 1.27 1.27))))
          (number "3" (effects (font (size 1.27 1.27))))
        )
        (pin passive line (at 12.7 -2.54 180) (length 5.08)
          (name "D2" (effects (font (size 1.27 1.27))))
          (number "4" (effects (font (size 1.27 1.27))))
        )
        (pin passive line (at 12.7 -5.08 180) (length 5.08)
          (name "D3" (effects (font (size 1.27 1.27))))
          (number "5" (effects (font (size 1.27 1.27))))
        )
      )
    )
  )


  (no_connect (at 101.6 54.61) (uuid 1cab2328-694f-4e92-9f57-39e1f4815631))

  (wire (pts (xy 101.6 62.23) (xy 106.68 62.23))
    (stroke (width 0) (type default))
    (uuid 139d215b-ff66-4c0c-92ac-60abdd9ecb06)
  )
  (wire (pts (xy 101.6 50.8) (xy 106.68 50.8))
    (stroke (width 0) (type default))
    (uuid 2a07b619-9fd0-4faa-b750-fbc1b05674be)
  )
  (wire (pts (xy 101.6 59.69) (xy 106.68 59.69))
    (stroke (width 0) (type default))
    (uuid 435183f6-1267-45af-ad2a-589c3cdfc652)
  )
  (wire (pts (xy 101.6 57.15) (xy 106.68 57.15))
    (stroke (width 0) (type default))
    (uuid ebd59e99-14f6-49c9-9482-8bcee7ccc1f1)
  )

  (symbol (lib_id "Switch:SW_Coded") (at 88.9 57.15 0) (unit 1)
    (in_bom yes) (on_board yes) (dnp no) (fields_autoplaced)
    (uuid 59c320df-9150-4cda-8c51-94f49ca122d9)
    (property "Reference" "SW1" (at 89.535 44.45 0)
      (effects (font (size 1.27 1.27)))
    )
    (property "Value" "SW_Coded" (at 89.535 46.99 0)
      (effects (font (size 1.27 1.27)))
    )
    (property "Footprint" "1.Eigenes:Rotary_CTS_220AM_04R" (at 88.265 56.515 0)
      (effects (font (size 1.27 1.27)) hide)
    )
    (property "Datasheet" "~" (at 88.265 56.515 0)
      (effects (font (size 1.27 1.27)) hide)
    )
    (property "Mouser" " 774-220AMC04R" (at 88.9 57.15 0)
      (effects (font (size 1.27 1.27)) hide)
    )
    (property "LCSC" " C6050741" (at 88.9 57.15 0)
      (effects (font (size 1.27 1.27)) hide)
    )
    (pin "1" (uuid edd8a701-1b2a-4d3c-abaa-cafaddee9f0c))
    (pin "2" (uuid ec13a781-f7b6-415e-89eb-35e6a8572285))
    (pin "3" (uuid 9b581d2f-a94b-4129-ae54-2a1e81219e79))
    (pin "4" (uuid d6abb27d-c2bc-4c72-af91-f0b28d7373c7))
    (pin "5" (uuid ab4218e1-e194-4b4d-a54c-45ccc77ca642))
    (instances
      (project "Amiga_TV-Port_Flashrom_Switch_Stackup"
        (path "/ed9ca487-6175-4c97-b41b-0b1c12ff3146"
          (reference "SW1") (unit 1)
        )
      )
    )
  )

  (symbol (lib_id "Connector_Generic:Conn_01x01") (at 111.76 57.15 0) (unit 1)
    (in_bom yes) (on_board yes) (dnp no)
    (uuid a9286886-51eb-453c-9c2f-c1c47ea00a51)
    (property "Reference" "J2" (at 114.554 57.15 0)
      (effects (font (size 1.27 1.27)) (justify left))
    )
    (property "Value" "ROT_D1" (at 119.38 57.15 0)
      (effects (font (size 1.27 1.27)) (justify left))
    )
    (property "Footprint" "1.Eigenes:PCB_Stack_Pin_4x3mm" (at 111.76 57.15 0)
      (effects (font (size 1.27 1.27)) hide)
    )
    (property "Datasheet" "~" (at 111.76 57.15 0)
      (effects (font (size 1.27 1.27)) hide)
    )
    (pin "1" (uuid 83da1139-87a4-43bc-98ce-de7c55996a5c))
    (instances
      (project "Amiga_TV-Port_Flashrom_Switch_Stackup"
        (path "/ed9ca487-6175-4c97-b41b-0b1c12ff3146"
          (reference "J2") (unit 1)
        )
      )
    )
  )

  (symbol (lib_id "Connector_Generic:Conn_01x01") (at 111.76 62.23 0) (unit 1)
    (in_bom yes) (on_board yes) (dnp no)
    (uuid b8f1220e-5c42-49ef-865b-c8fd8036feaa)
    (property "Reference" "J4" (at 114.554 62.23 0)
      (effects (font (size 1.27 1.27)) (justify left))
    )
    (property "Value" "ROT_D3" (at 119.38 62.23 0)
      (effects (font (size 1.27 1.27)) (justify left))
    )
    (property "Footprint" "1.Eigenes:PCB_Stack_Pin_4x3mm" (at 111.76 62.23 0)
      (effects (font (size 1.27 1.27)) hide)
    )
    (property "Datasheet" "~" (at 111.76 62.23 0)
      (effects (font (size 1.27 1.27)) hide)
    )
    (pin "1" (uuid 2bfeba8f-7c14-4f27-b2d3-11518bd6f945))
    (instances
      (project "Amiga_TV-Port_Flashrom_Switch_Stackup"
        (path "/ed9ca487-6175-4c97-b41b-0b1c12ff3146"
          (reference "J4") (unit 1)
        )
      )
    )
  )

  (symbol (lib_id "Connector_Generic:Conn_01x01") (at 111.76 50.8 0) (unit 1)
    (in_bom yes) (on_board yes) (dnp no)
    (uuid ee3137df-994d-47ed-ae5c-a989819bb220)
    (property "Reference" "J1" (at 114.554 50.8 0)
      (effects (font (size 1.27 1.27)) (justify left))
    )
    (property "Value" "ROT_5V" (at 119.38 50.8 0)
      (effects (font (size 1.27 1.27)) (justify left))
    )
    (property "Footprint" "1.Eigenes:PCB_Stack_Pin_4x3mm" (at 111.76 50.8 0)
      (effects (font (size 1.27 1.27)) hide)
    )
    (property "Datasheet" "~" (at 111.76 50.8 0)
      (effects (font (size 1.27 1.27)) hide)
    )
    (pin "1" (uuid c5212577-633d-4d45-9231-0dbb9ec8dad3))
    (instances
      (project "Amiga_TV-Port_Flashrom_Switch_Stackup"
        (path "/ed9ca487-6175-4c97-b41b-0b1c12ff3146"
          (reference "J1") (unit 1)
        )
      )
    )
  )

  (symbol (lib_id "Connector_Generic:Conn_01x01") (at 111.76 59.69 0) (unit 1)
    (in_bom yes) (on_board yes) (dnp no)
    (uuid f2f5583f-0e1a-4c42-aa2a-a423a0f261a5)
    (property "Reference" "J3" (at 114.554 59.69 0)
      (effects (font (size 1.27 1.27)) (justify left))
    )
    (property "Value" "ROT_D2" (at 119.38 59.69 0)
      (effects (font (size 1.27 1.27)) (justify left))
    )
    (property "Footprint" "1.Eigenes:PCB_Stack_Pin_4x3mm" (at 111.76 59.69 0)
      (effects (font (size 1.27 1.27)) hide)
    )
    (property "Datasheet" "~" (at 111.76 59.69 0)
      (effects (font (size 1.27 1.27)) hide)
    )
    (pin "1" (uuid 5ece51ac-f0a2-42f6-9e18-f9ff1c0078b5))
    (instances
      (project "Amiga_TV-Port_Flashrom_Switch_Stackup"
        (path "/ed9ca487-6175-4c97-b41b-0b1c12ff3146"
          (reference "J3") (unit 1)
        )
      )
    )
  )

  (sheet_instances
    (path "/" (page "1"))
  )
)
